<?xml version="1.0" encoding="UTF-8"?>
<svg width="1200pt" height="1200pt" version="1.1" viewBox="0 0 1200 1200" xmlns="http://www.w3.org/2000/svg">
 <defs>
  <clipPath id="a">
   <path d="m222.14 359h755.71v482h-755.71z"/>
  </clipPath>
 </defs>
 <g clip-path="url(#a)">
  <path d="m866.93 709.79 18.504 46.262c0.54297 1.3555 0.82031 2.7969 0.82031 4.2539v68.703c0 6.3203-5.1289 11.449-11.449 11.449-6.3242 0-11.453-5.1289-11.453-11.449v-66.496l-20.008-50.02c-15.531 1.3555-31.867 2.0117-48.691 2.0117-48.211 0-89.461-29.793-106.34-71.973-8.793 11.141-20.961 19.492-34.965 23.512l47.965 76.742c1.1367 1.8203 1.7422 3.9219 1.7422 6.0703v80.152c0 6.3203-5.1289 11.449-11.453 11.449-6.3203 0-11.449-5.1289-11.449-11.449v-76.871l-52.34-83.742c-20.52-1.9375-38.41-12.898-49.664-28.875-0.34375 0.60156-0.69141 1.1992-1.0469 1.7891v187.7c0 6.3203-5.125 11.449-11.449 11.449-6.3242 0-11.453-5.1289-11.453-11.449v-163.22c-12.98 9.0586-28.77 14.367-45.801 14.367-1.8242 0-3.6328-0.058594-5.4258-0.17969l-51.824 72.551v76.484c0 6.3203-5.125 11.449-11.449 11.449s-11.449-5.1289-11.449-11.449v-80.152c0-2.3867 0.74219-4.7148 2.1328-6.6562l48.363-67.711c-17.074-6.8008-31.258-19.305-40.199-35.156-30 57-105.43 132.42-136.25 132.42-43.434 0-80.152-100.89-80.152-171.75 0-54.812 54.418-101.89 112.35-103.03-13.758-76.156-30.453-114.52-43.645-114.52-17.934 0-33.504 12.453-47.012 39.469-2.8281 5.6562-9.707 7.9492-15.363 5.1211-5.6562-2.8281-7.9492-9.707-5.1211-15.363 17.027-34.051 39.625-52.129 67.496-52.129 31.039 0 51.125 46.285 67.273 139.5 34.844 6.7695 66.176 29.379 82.055 58.867 14.125-22.84 39.395-38.059 68.223-38.059 29.898 0 55.973 16.367 69.75 40.633 12.434-17.652 32.973-29.184 56.203-29.184 21.883 0 41.379 10.23 53.961 26.172 16.883-42.18 58.133-71.973 106.34-71.973 83.852 0 183.2 63.625 183.2 148.85 0 42.371-45.988 66.094-110.93 75.438zm-157.78-76.852c13.23 34.316 46.523 58.664 85.504 58.664 13.633 0 26.953-0.51562 39.727-1.5312l-34.898-87.242zm-5.4883-22.309 98.82-32.941c5.75-1.9141 12 0.98438 14.254 6.6133l41.293 103.23c56.25-7.707 96.926-26.121 96.926-53.184 0-69.895-87.531-125.95-160.3-125.95-50.59 0-91.602 41.012-91.602 91.602 0 3.5977 0.20703 7.1445 0.60937 10.629zm-69.312 35.172c25.297 0 45.801-20.504 45.801-45.801 0-25.293-20.504-45.801-45.801-45.801-25.293 0-45.801 20.508-45.801 45.801 0 25.297 20.508 45.801 45.801 45.801zm-125.95 11.453c31.621 0 57.254-25.633 57.254-57.254 0-31.617-25.633-57.25-57.254-57.25-31.617 0-57.25 25.633-57.25 57.25 0 31.621 25.633 57.254 57.25 57.254zm-80.148-57.254c0-41.961-44.785-80.148-91.602-80.148-46.82 0-91.602 38.188-91.602 80.148 0 58.805 32.77 148.86 57.25 148.86 25.781 0 125.95-109.46 125.95-148.86z"/>
 </g>
</svg>
